{
    "defaultSeverity": "error",
    "extends": [
        "tslint-config-airbnb",
        "tslint-config-prettier"
    ],
    "jsRules": {},
    "rules": {
        "new-parens": true,
        "no-arg": true,
        "no-bitwise": true,
        "no-conditional-assignment": true,
        "no-consecutive-blank-lines": false,
        "ter-prefer-arrow-callback":false,
        "no-console": {
            "options": [
                "debug",
                "info",
                "log",
                "time",
                "timeEnd",
                "trace"
            ]
        },
        "import-name": false,
        "function-name": false
    },
    "rulesDirectory": []
}